module preauthbridge

go 1.21.4

require (
	github.com/cloudevents/sdk-go/v2 v2.14.0
	github.com/gofiber/fiber/v2 v2.51.0
	github.com/redis/go-redis/v9 v9.4.0
	github.com/sirupsen/logrus v1.9.3
	github.com/spf13/viper v1.18.2
	github.com/stretchr/testify v1.8.4
	gitlab.eclipse.org/eclipse/xfsc/libraries/messaging/cloudeventprovider v0.1.0
	gitlab.eclipse.org/eclipse/xfsc/libraries/microservice/core v0.0.0-20240212140057-ddf9d6a6a28d
	golang.org/x/oauth2 v0.15.0
)

require (
	github.com/Azure/go-amqp v0.17.0 // indirect
	github.com/Shopify/sarama v1.38.1 // indirect
	github.com/andybalholm/brotli v1.0.6 // indirect
	github.com/cespare/xxhash/v2 v2.2.0 // indirect
	github.com/cloudevents/sdk-go/protocol/amqp/v2 v2.14.0 // indirect
	github.com/cloudevents/sdk-go/protocol/kafka_sarama/v2 v2.14.0 // indirect
	github.com/cloudevents/sdk-go/protocol/mqtt_paho/v2 v2.0.0-20240112101907-998919d6876d // indirect
	github.com/cloudevents/sdk-go/protocol/nats/v2 v2.14.0 // indirect
	github.com/cloudevents/sdk-go/protocol/nats_jetstream/v2 v2.14.0 // indirect
	github.com/davecgh/go-spew v1.1.2-0.20180830191138-d8f796af33cc // indirect
	github.com/dgryski/go-rendezvous v0.0.0-20200823014737-9f7001d12a5f // indirect
	github.com/eapache/go-resiliency v1.4.0 // indirect
	github.com/eapache/go-xerial-snappy v0.0.0-20230731223053-c322873962e3 // indirect
	github.com/eapache/queue v1.1.0 // indirect
	github.com/eclipse/paho.golang v0.12.0 // indirect
	github.com/fsnotify/fsnotify v1.7.0 // indirect
	github.com/go-logr/logr v1.4.1 // indirect
	github.com/go-logr/zapr v1.3.0 // indirect
	github.com/golang/protobuf v1.5.3 // indirect
	github.com/golang/snappy v0.0.4 // indirect
	github.com/google/uuid v1.5.0 // indirect
	github.com/hashicorp/errwrap v1.1.0 // indirect
	github.com/hashicorp/go-multierror v1.1.1 // indirect
	github.com/hashicorp/go-uuid v1.0.3 // indirect
	github.com/hashicorp/hcl v1.0.0 // indirect
	github.com/jcmturner/aescts/v2 v2.0.0 // indirect
	github.com/jcmturner/dnsutils/v2 v2.0.0 // indirect
	github.com/jcmturner/gofork v1.7.6 // indirect
	github.com/jcmturner/gokrb5/v8 v8.4.4 // indirect
	github.com/jcmturner/rpc/v2 v2.0.3 // indirect
	github.com/json-iterator/go v1.1.12 // indirect
	github.com/klauspost/compress v1.17.3 // indirect
	github.com/magiconair/properties v1.8.7 // indirect
	github.com/mattn/go-colorable v0.1.13 // indirect
	github.com/mattn/go-isatty v0.0.20 // indirect
	github.com/mattn/go-runewidth v0.0.15 // indirect
	github.com/mitchellh/mapstructure v1.5.0 // indirect
	github.com/modern-go/concurrent v0.0.0-20180306012644-bacd9c7ef1dd // indirect
	github.com/modern-go/reflect2 v1.0.2 // indirect
	github.com/nats-io/nats.go v1.32.0 // indirect
	github.com/nats-io/nkeys v0.4.7 // indirect
	github.com/nats-io/nuid v1.0.1 // indirect
	github.com/pelletier/go-toml/v2 v2.1.1 // indirect
	github.com/pierrec/lz4/v4 v4.1.18 // indirect
	github.com/pmezard/go-difflib v1.0.1-0.20181226105442-5d4384ee4fb2 // indirect
	github.com/rcrowley/go-metrics v0.0.0-20201227073835-cf1acfcdf475 // indirect
	github.com/rivo/uniseg v0.4.4 // indirect
	github.com/sagikazarmark/locafero v0.4.0 // indirect
	github.com/sagikazarmark/slog-shim v0.1.0 // indirect
	github.com/sethvargo/go-retry v0.2.4 // indirect
	github.com/sourcegraph/conc v0.3.0 // indirect
	github.com/spf13/afero v1.11.0 // indirect
	github.com/spf13/cast v1.6.0 // indirect
	github.com/spf13/pflag v1.0.5 // indirect
	github.com/subosito/gotenv v1.6.0 // indirect
	github.com/valyala/bytebufferpool v1.0.0 // indirect
	github.com/valyala/fasthttp v1.51.0 // indirect
	github.com/valyala/tcplisten v1.0.0 // indirect
	go.uber.org/multierr v1.11.0 // indirect
	go.uber.org/zap v1.26.0 // indirect
	golang.org/x/crypto v0.18.0 // indirect
	golang.org/x/exp v0.0.0-20240103183307-be819d1f06fc // indirect
	golang.org/x/net v0.20.0 // indirect
	golang.org/x/sync v0.5.0 // indirect
	golang.org/x/sys v0.16.0 // indirect
	golang.org/x/text v0.14.0 // indirect
	google.golang.org/appengine v1.6.7 // indirect
	google.golang.org/protobuf v1.32.0 // indirect
	gopkg.in/ini.v1 v1.67.0 // indirect
	gopkg.in/yaml.v3 v3.0.1 // indirect
)
